^C:\GIT_OLYA\MY-PROJECT\PROJECTS\CALCULATOR2\CALCULATOR\CALCULATOR.CPP|C:\GIT_OLYA\MY-PROJECT\PROJECTS\CALCULATOR2\CALCULATOR\MAIN.CPP
C:\GIT_OLYA\MY-PROJECT\PROJECTS\CALCULATOR2\CALCULATOR\DEBUG\VC142.PDB
C:\GIT_OLYA\MY-PROJECT\PROJECTS\CALCULATOR2\CALCULATOR\DEBUG\VC142.IDB
C:\GIT_OLYA\MY-PROJECT\PROJECTS\CALCULATOR2\CALCULATOR\DEBUG\MAIN.OBJ
C:\GIT_OLYA\MY-PROJECT\PROJECTS\CALCULATOR2\CALCULATOR\DEBUG\CALCULATOR.OBJ
^C:\GIT_OLYA\MY-PROJECT\PROJECTS\CALCULATOR2\CALCULATOR\CALCULATOR.CPP
C:\GIT_OLYA\MY-PROJECT\PROJECTS\CALCULATOR2\CALCULATOR\DEBUG\VC142.PDB
^C:\GIT_OLYA\MY-PROJECT\PROJECTS\CALCULATOR2\CALCULATOR\MAIN.CPP
C:\GIT_OLYA\MY-PROJECT\PROJECTS\CALCULATOR2\CALCULATOR\DEBUG\VC142.PDB
