^C:\GIT_OLYA\MY-PROJECT\PROJECTS\SIMPLE_PROJECT\CALCULATOR\MAIN.CPP|C:\GIT_OLYA\MY-PROJECT\PROJECTS\SIMPLE_PROJECT\CALCULATOR\SIMPLE_PROJECT.CPP
C:\GIT_OLYA\MY-PROJECT\PROJECTS\SIMPLE_PROJECT\CALCULATOR\DEBUG\VC142.PDB
C:\GIT_OLYA\MY-PROJECT\PROJECTS\SIMPLE_PROJECT\CALCULATOR\DEBUG\VC142.IDB
C:\GIT_OLYA\MY-PROJECT\PROJECTS\SIMPLE_PROJECT\CALCULATOR\DEBUG\MAIN.OBJ
C:\GIT_OLYA\MY-PROJECT\PROJECTS\SIMPLE_PROJECT\CALCULATOR\DEBUG\SIMPLE_PROJECT.OBJ
^C:\GIT_OLYA\MY-PROJECT\PROJECTS\SIMPLE_PROJECT\CALCULATOR\SIMPLE_PROJECT.CPP
C:\GIT_OLYA\MY-PROJECT\PROJECTS\SIMPLE_PROJECT\CALCULATOR\DEBUG\VC142.PDB
^C:\GIT_OLYA\MY-PROJECT\PROJECTS\SIMPLE_PROJECT\CALCULATOR\MAIN.CPP
C:\GIT_OLYA\MY-PROJECT\PROJECTS\SIMPLE_PROJECT\CALCULATOR\DEBUG\VC142.PDB
