^C:\GIT_OLYA\MY-PROJECT\PROJECTS\SIMPLE_PROJECT\CALCULATOR\DEBUG\MAIN.OBJ|C:\GIT_OLYA\MY-PROJECT\PROJECTS\SIMPLE_PROJECT\CALCULATOR\DEBUG\SIMPLE_PROJECT.OBJ
C:\GIT_OLYA\MY-PROJECT\PROJECTS\SIMPLE_PROJECT\DEBUG\SIMPLE_PROJECT.ILK
C:\GIT_OLYA\MY-PROJECT\PROJECTS\SIMPLE_PROJECT\DEBUG\SIMPLE_PROJECT.EXE
C:\GIT_OLYA\MY-PROJECT\PROJECTS\SIMPLE_PROJECT\DEBUG\SIMPLE_PROJECT.PDB
