^C:\USERS\HOME\SOURCE\REPOS\SOME MASSIVE\MASSIVE_TEST\PCH.CPP
C:\USERS\HOME\SOURCE\REPOS\SOME MASSIVE\MASSIVE_TEST\DEBUG\MASSIVE_TEST.PCH
C:\USERS\HOME\SOURCE\REPOS\SOME MASSIVE\MASSIVE_TEST\DEBUG\VC142.PDB
C:\USERS\HOME\SOURCE\REPOS\SOME MASSIVE\MASSIVE_TEST\DEBUG\VC142.IDB
C:\USERS\HOME\SOURCE\REPOS\SOME MASSIVE\MASSIVE_TEST\DEBUG\PCH.OBJ
^C:\USERS\HOME\SOURCE\REPOS\SOME MASSIVE\MASSIVE_TEST\MASSIVE_TEST.CPP
C:\USERS\HOME\SOURCE\REPOS\SOME MASSIVE\MASSIVE_TEST\DEBUG\VC142.PDB
C:\USERS\HOME\SOURCE\REPOS\SOME MASSIVE\MASSIVE_TEST\DEBUG\VC142.IDB
C:\USERS\HOME\SOURCE\REPOS\SOME MASSIVE\MASSIVE_TEST\DEBUG\MASSIVE_TEST.OBJ
