^C:\USERS\HOME\SOURCE\REPOS\SOME MASSIVE\MASSIVE_TEST\DEBUG\MASSIVE_TEST.OBJ|C:\USERS\HOME\SOURCE\REPOS\SOME MASSIVE\MASSIVE_TEST\DEBUG\PCH.OBJ
/OUT:"C:\USERS\HOME\SOURCE\REPOS\SOME MASSIVE\DEBUG\MASSIVE_TEST.DLL" /INCREMENTAL /NOLOGO /LIBPATH:"C:\PROGRAM FILES (X86)\MICROSOFT VISUAL STUDIO\2019\COMMUNITY\VC\UNITTEST\LIB" KERNEL32.LIB USER32.LIB GDI32.LIB WINSPOOL.LIB COMDLG32.LIB ADVAPI32.LIB SHELL32.LIB OLE32.LIB OLEAUT32.LIB UUID.LIB ODBC32.LIB ODBCCP32.LIB /MANIFEST /MANIFESTUAC:"level='asInvoker' uiAccess='false'" /manifest:embed /DEBUG:FASTLINK /PDB:"C:\USERS\HOME\SOURCE\REPOS\SOME MASSIVE\DEBUG\MASSIVE_TEST.PDB" /SUBSYSTEM:WINDOWS /TLBID:1 /DYNAMICBASE /NXCOMPAT /IMPLIB:"C:\USERS\HOME\SOURCE\REPOS\SOME MASSIVE\DEBUG\MASSIVE_TEST.LIB" /MACHINE:X86 /DLL DEBUG\MASSIVE_TEST.OBJ
DEBUG\PCH.OBJ
